[
    {
        "id": 1,
        "title": "Introduction to Natural Language Processing",
        "category": {
            "id": 1,
            "name": "Natural Language Processing"
        },
        "content": "Natural Language Processing (NLP) is a subfield of artificial intelligence that focuses on the interaction between computers and humans using natural language. NLP has become increasingly important in recent years due to the growth of digital data and the need to extract meaningful insights from unstructured text data. In this article, we will explore the basics of NLP, including its history, common techniques, and real-world applications."
    },
    {
        "id": 2,
        "title": "Deep Learning Techniques for Image Recognition",
        "category": {
            "id": 3,
            "name": "Computer Vision"
        },
        "content": "Deep learning is a subset of machine learning that utilizes artificial neural networks to model and solve complex problems. One of the most popular applications of deep learning is image recognition, where a neural network is trained to identify objects within an image. In this article, we will explore the basics of deep learning for image recognition, including the architecture of a typical neural network and the training process. We will also look at some real-world examples of image recognition using deep learning."
    },
    {
        "id": 3,
        "title": "Understanding Computer Vision and Its Applications",
        "category": {
            "id": 3,
            "name": "Computer Vision"
        },
        "content": "Computer vision is a field of artificial intelligence that enables computers to interpret and understand the visual world. It has a wide range of applications, from autonomous vehicles to facial recognition systems. In this article, we will explore the basics of computer vision, including the common techniques and algorithms used to process and analyze visual data. We will also look at some real-world examples of computer vision applications."
    },
    {
        "id": 4,
        "title": "Applications of Robotics in Manufacturing",
        "category": {
            "id": 4,
            "name": "Robotics"
        },
        "content": "Robotics is the branch of technology that deals with the design, construction, operation, and application of robots. In manufacturing, robots are increasingly being used to automate repetitive tasks, improve efficiency, and reduce costs. In this article, we will explore the various applications of robotics in manufacturing, including assembly, welding, painting, and quality control. We will also look at some of the benefits and challenges of using robots in manufacturing."
    },
    {
        "id": 5,
        "title": "AI Ethics and Bias , The Importance of Fairness and Accountability",
        "category": {
            "id": 2,
            "name": "Machine Learning"
        },
        "content": "As artificial intelligence (AI) continues to advance, it has become increasingly important to consider the ethical implications of its use. One of the key issues in AI ethics is bias, which can lead to unfair and discriminatory outcomes. In this article, we will explore the importance of fairness and accountability in AI, and the challenges of ensuring that AI systems are free from bias. We will also look at some real-world examples of bias in AI, and the efforts being made to address this issue."
    }
]